notebook
…
 Mode  :character   Mode  :character   Median : 18934  
                                       Mean   : 31777  
                                       3rd Qu.: 22941  
                                       Max.   :579000  
                                       NA's   :3       
                      Venue      Referee             Notes          
 Parc des Princes        : 7   Length:55          Length:55         
 Roazhon Park            : 7   Class :character   Class :character  
 Stade Oceane            : 7   Mode  :character   Mode  :character  
 Stade Auguste-Delaune II: 6                                        
 Stade du Hainaut        : 6                                        
 (Other)                 :18                                        
 NA's                    : 4                                        

# A tibble: 55 x 13
   Round Wk    Day   Date       Time  Home  Score PKS   Away  Attendance Venue
   <fct> <chr> <chr> <date>     <tim> <chr> <chr> <chr> <chr>      <dbl> <fct>
 1 Grou~ 1     Fri   2019-06-07 21:00 Fran~ 4 - 0 NA    Kore~      45261 Parc~
 2 Grou~ 1     Sat   2019-06-08 15:00 Germ~ 1 - 0 NA    Chin~      15283 Roaz~
 3 Grou~ 1     Sat   2019-06-08 18:00 Spain 3 - 1 NA    Sout~      12044 Stad~
 4 Grou~ 1     Sat   2019-06-08 21:00 Norw~ 3 - 0 NA    Nige~      11058 Stad~
 5 Grou~ 1     Sun   2019-06-09 13:00 Aust~ 1 - 2 NA    Italy      15380 Stad~
 6 Grou~ 1     Sun   NA         15:30 Braz~ 3 - 0 NA    Jama~      17668 Stad~
 7 Grou~ 1     Sun   2019-06-09 18:00 Engl~ 2 - 1 NA    Scot~      13188 Stad~
 8 Grou~ 1     Mon   2019-06-10 18:00 Arge~ 0 - 0 NA    Japan      25055 Parc~
 9 Grou~ 1     Mon   2019-06-10 21:00 Cana~ 1 - 0 NA    Came~      10710 Stad~
10 Grou~ 1     Tue   2019-06-11 15:00 New ~ 0 - 1 NA    Neth~      10654 Stad~
# ... with 45 more rows, and 2 more variables: Referee <chr>, Notes <chr>
…
